<svg xmlns="http://www.w3.org/2000/svg" width="19" height="33" viewBox="0 0 19 33">
    <path fill="none" fill-rule="evenodd" stroke="#FFF" stroke-linecap="round" stroke-linejoin="round" stroke-width="3.42" d="M2.5 31.289l14-14.596-14-14.597"/>
</svg>
