<svg xmlns="http://www.w3.org/2000/svg" width="20" height="14" viewBox="0 0 20 14">
    <g fill="none" fill-rule="evenodd">
        <path fill="#FFF" d="M-259-888h1440v6975H-259z"/>
        <g stroke="#7A7A7A">
            <path d="M3.62 5.125h3.722M3.62 7.375h3.722M3.62 9.625h3.722M12.633 5.125h3.702M12.633 7.375h3.702M12.633 9.625h3.702M9.974 13.437V2.444c0-.682-1.876-1.235-4.3-1.235-2.423 0-4.299.553-4.299 1.235v10.993c.782-.213 2.697-.337 4.3-.337 1.602 0 2.735.123 4.299.337z"/>
            <path d="M18.573 13.437V2.444c0-.682-1.876-1.235-4.3-1.235s-4.3.553-4.3 1.235v10.993c1.564-.213 2.698-.337 4.3-.337 1.602 0 3.518.123 4.3.337z"/>
        </g>
        <path d="M1-2h18v18H1z"/>
    </g>
</svg>
