<svg xmlns="http://www.w3.org/2000/svg" xmlns:xlink="http://www.w3.org/1999/xlink" width="25" height="25" viewBox="0 0 25 25">
    <defs>
        <path id="a" d="M12.38.239h12.379v24.513H0V.24z"/>
    </defs>
    <g fill="none" fill-rule="evenodd">
        <g transform="translate(0 .009)">
            <mask id="b" fill="#fff">
                <use xlink:href="#a"/>
            </mask>
            <path fill="#FFF" d="M20.448 4.508a11.435 11.435 0 0 0-8.068-3.312c-3.154 0-6.005 1.269-8.069 3.312a11.182 11.182 0 0 0-3.344 7.988A11.21 11.21 0 0 0 4.31 20.49a11.428 11.428 0 0 0 8.069 3.306c3.153 0 6.004-1.263 8.068-3.306a11.208 11.208 0 0 0 3.344-7.994 11.18 11.18 0 0 0-3.344-7.988M12.38.238c3.42 0 6.511 1.372 8.753 3.591a12.153 12.153 0 0 1 3.626 8.667c0 3.386-1.385 6.447-3.626 8.666a12.396 12.396 0 0 1-8.753 3.59c-3.421 0-6.512-1.37-8.754-3.59A12.153 12.153 0 0 1 0 12.496c0-3.387 1.385-6.447 3.626-8.667A12.396 12.396 0 0 1 12.38.239" mask="url(#b)"/>
        </g>
        <path fill="#FFF" d="M17.788 11.778h-.274v-.244c0-.346.007-.693 0-1.045 0-.054-.069-.156-.096-.156-.315-.014-.638-.014-.973-.014v1.445H14.97v.265c.014.258.021.523.042.78.253.014.507.028.774.028.213.007.432 0 .665 0v1.425c.364-.007.7 0 1.063 0v-1.425h1.439v-1.058h-1.165zm-4.147-.129c-.912.014-1.824.014-2.735.014-.26 0-.528-.014-.782 0-.054 0-.137.06-.137.095-.007.523-.007 1.045-.007 1.588h2.228c-.02.108-.04.19-.075.264-.336 1.005-1.385 1.5-2.516 1.317-1.398-.23-2.262-1.507-2.008-2.89.027-.198.096-.388.164-.564.466-1.005 1.61-1.615 2.742-1.364.404.088.754.271 1.049.536.41-.408.802-.794 1.227-1.215-.028-.02-.076-.054-.103-.088-.987-.822-2.118-1.127-3.386-.917a4.127 4.127 0 0 0-3.427 3.38c-.13.706-.076 1.46.205 2.192a4.223 4.223 0 0 0 4.408 2.627c.939-.102 1.775-.435 2.42-1.12.965-1.018 1.219-2.24 1.062-3.59-.028-.224-.117-.265-.33-.265z"/>
    </g>
</svg>
