<svg xmlns="http://www.w3.org/2000/svg" width="55" height="76" viewBox="0 0 55 76">
    <path fill="#FFF" fill-rule="evenodd" d="M50.651 43.473c3.256 1.29 3.44 4.305 4.316 6.89.12.359-.1.71-.521.694-.492-.018-.433-.45-.396-.77.104-.891-.193-1.623-.64-2.396-.647-1.119-1.26-1.177-2.052-.236-.578.684-1.114 1.489-1.913.214-.064-.102-.392-.18-.416-.146-1.552 2.27-3.72.746-5.577.818-1.629.063-1.97.177-1.976 1.855-.002.86.238 1.268 1.145 1.218.445-.025.934-.01 1.338.153.628.25.71.867.567 1.444-.154.62-.592.226-.951.2-1.07-.078-2.475-.072-2.785.94-.356 1.16-.73 2.708.748 3.701 1.55 1.042 2.07 2.796 1.866 4.368-.555 4.258-1.47 8.469-2.265 12.822-1.15-.351-1.516-1.865-2.965-1.552-.595.128-.404-.594-.142-1 .676-1.049 1.312-2.125 2.031-3.142.467-.661.488-1.153-.334-1.417-1.549-.498-2.776-2.364-4.738-1.14-1.71-1.294-3.16.047-4.746.37-.743.15-1.646-.158-2.494-.15-.357.003-1.023-.296-1.026-.466-.02-1.371-1.49-2.135-1.653-2.934-.363-1.774-1.706-1.944-2.73-2.67-.4-.284-.902-.35-1.104-.936-.755-2.202-2.476-3.063-4.649-3.517-1.034-.216-2.164-.542-2.979-1.464-.494-.559-1.059-1.083-1.953-.158-.804.83-3.924-.058-4.647-1.074-.444-.624-.933-1.146-1.783-1.354-1.803-.441-3.207-1.574-4.515-2.865-1.158-1.142-.873-1.57.633-1.563.416.002.722-.158.5-.589-1.106-2.133.876-2.699 1.932-2.845 1.25-.173 1.664-.89 2.234-1.624.51-.66.875-1.433 1.368-2.11.648-.891 1.71-1.717-.039-2.591-.38-.19-.35-.789-.201-1.102.917-1.94.433-3.828-.158-5.702-.132-.419.072-.459.303-.61.181-.12.487-.395.467-.425-.914-1.403-.006-3.13-.927-4.608-.631-1.013-2.382-1.75-1.275-3.52.303-.484.164-.703.9-.404.775.315 1.8-1.722 1.35-2.63-.311-.628-.846-1.182-.675-2.02 1.566.96 2.388 1.933 2.65 3.116.734-.26.495-.99.34-1.262-.962-1.676.233-2.248 1.348-2.92.586-.354 1.058-.829 1.354-1.476.136-.298.383-.763.599-.774 2.689-.136 2.018-2.343 2.066-3.731.08-2.336 1.887-3.154 3.282-4.194.81-.604 1.654.417 2.073 1.652.352-2.834 1.952-3.12 4.05-2.599.572.142 1.094-.13 1.562-.51 1.011-.823 2.041-1.612 3.354-1.938.643-.16.982-.672 1.283-1.26.603-1.18 2.545-1.877 3.583-1.362 1.22.605 1.287 1.44.23 2.301a3.034 3.034 0 0 1-1.547.65c-1.145.143-1.756.784-2.29 1.76-.681 1.244-2.289 1.682-2.814 3.192-.295.848-.822 1.633-.775 2.56.082 1.614-1.109 2.668-1.82 4.181 1.738-.456 2.648.165 2.91 1.766.062.373.234.821.508 1.048 1.134.935 1.26 1.962.71 3.3-.322.785.077 1.36.697 2.198 1.973 2.667 4.33 1.258 6.606 1.34 1.428.052 3.015.134 4.061 1.467.526.669 1.097 1.304 1.586 1.998.525.745 1.117.902 2.027.71 2.074-.437 4.229.013 6.332-.658 1.029-.328 1.488.816.914 1.939-1.41 2.761-1.798 5.618-.678 8.586.06.16.094.331.173.478.437.807 1.732 1.344 1.346 2.322-.317.806-1.319 1.342-2.193 2.163"/>
</svg>
