<svg xmlns="http://www.w3.org/2000/svg" width="46" height="52" viewBox="0 0 46 52">
    <path fill="#FFF" fill-rule="evenodd" d="M5.69 38.97c1.458-.166 2.401-1.081 2.85-2.612.352-1.202.832-2.366 1.212-3.56.087-.275.04-.616-.02-.91-.257-1.232-.542-2.458-.882-3.977-.207.55-.474.984-.52 1.442-.073.706.083 1.438-.013 2.137-.049.357-.435.668-.669 1l-.386-.218.513-1.813-.279-.173-2.255 3.15L0 29.698c2.045-1.298 2.22-2.047 1.278-4.328-.225-.545-.24-1.332-.022-1.872.346-.85.323-1.454-.24-2.213-1.052-1.418-.728-1.926 1.016-2.176.49-.07 1.092-.559 1.318-1.017.478-.966.98-1.905.64-3.184-.144-.545.747-1.56 1.39-2.085 1.66-1.356 2.772-4.26 2.187-6.279-.07-.24-.432-.434-.432-.648.002-.34.103-.885.322-.983 1.32-.59 2.681-1.093 4.04-1.592 1.15-.422 2.295-.896 3.482-1.168 1.162-.266 2.016-.697 1.942-2.153 1.983 1.282 3.718 2.506 5.554 3.553 1.02.582 2.29.728 3.293 1.33.96.575 2.26.877 2.504 2.33.19 1.128 1.085 1.415 2.097 1.52.598.062 1.18.276 1.777.359 1.684.23 3.366 1.153 5.009-.433.389-.375 1.73-.111 2.415.262.954.52 1.62 1.562 2.564 2.118.883.52 1.966.7 2.91 1.24H43.05c1.626 2.041 3.451 3.791 2.823 6.394-.448.456-1.147.826-1.207 1.281-.573 4.353-3.702 6.976-6.553 9.724-1.191 1.148-2.733 2.039-4.263 2.7-2.712 1.173-5.534 2.091-8.318 3.094-1.24.448-3.43 2.855-3.49 3.896-.818-.578-1.025-.021-1.26.635-.698 1.944-1.52 3.847-2.125 5.818-.445 1.45-.364 3.124-2.155 3.799-.133.05-.193.397-.22.615-.119.944-.274 1.731-1.55 1.764-1.323.033-2.122-.51-2.56-1.697-.186-.505-.302-1.037-.488-1.542-.328-.891-.826-1.345-1.93-1.203-.656.085-1.507-.253-2.056-.679-.908-.706-1.551-.705-2.283.178-.24.29-.671.42-1.015.622-.078-.08-.155-.162-.232-.243l.542-1.468c-.262-.25-.647-.448-.738-.739-.17-.542-.361-1.19.695-1.117 1.242.086 1.721-.561 1.514-1.79-.183-1.09-.322-2.187-.49-3.35"/>
</svg>
